Homework Sheet 2 – Wrangle, Summarize, Visualize – Excercises
…
Upload the ZIP archive on Stud.IP in your group folder before the deadline (see above). You may upload as many times as you like before the deadline, only your final submission will count.

Exercise 1: Explore your own BLJM data [15 points]

Make sure you obtained the file BLJM-data-2020.csv from StudIP. It contains data from the “Bio-Logic Jazz-Metal” experiment, which is also coverd in the web-book. But this data is what you have produced by taking part in the voluntary web-experiment. So, let’s go analyze YOUR preferences!

Ex 1.a Global summary statistics [2 points]

Load the file using the code below (the CSV file should be in the same directory as your Rmd file).

data_BLJM <- read_csv("BLJM-data-2020.csv")
data_BLJM

## # A tibble: 348 x 16
##    submission_id    RT   age comments education endTime experiment_id gender
##            <dbl> <dbl> <dbl> <chr>    <chr>       <dbl>         <dbl> <chr> 
##  1          1225  6258    20 <NA>     Graduate… 1.60e12            44 female
##  2          1225  3237    20 <NA>     Graduate… 1.60e12            44 female
##  3          1225  1704    20 <NA>     Graduate… 1.60e12            44 female
##  4          1224  3337    24 <NA>     Graduate… 1.60e12            44 female
##  5          1224  2198    24 <NA>     Graduate… 1.60e12            44 female
##  6          1224  1828    24 <NA>     Graduate… 1.60e12            44 female
##  7          1223 12299    21 <NA>     Graduate… 1.60e12            44 female
##  8          1223  6937    21 <NA>     Graduate… 1.60e12            44 female
##  9          1223  3148    21 <NA>     Graduate… 1.60e12            44 female
## 10          1222  5629    21 <NA>     Graduate… 1.60e12            44 female
## # … with 338 more rows, and 8 more variables: languages <chr>, option1 <chr>,
## #   option2 <chr>, response <chr>, startTime <dbl>, timeSpent <dbl>,
## #   trial_name <chr>, trial_number <dbl>
…
We will use the code from Appendix D of the web-book to process the data for more convenient analysis. Insert short but insightful comments in the code below:

data_BLJM_processed <- 
  data_BLJM %>% 
  # creating column 'condition' by building entries from the first letter 
  # of option1 and option2 respectively, for each subject 
  mutate(
    condition = str_c(str_sub(option2, 1, 1), str_sub(option1, 1, 1))
  ) %>% 
  # only keep these columns in variable data_BLJM
  select(submission_id, condition, response)

data_BLJM_processed

## # A tibble: 348 x 3
##    submission_id condition response
##            <dbl> <chr>     <chr>   
##  1          1225 JM        Metal   
##  2          1225 LB        Logic   
##  3          1225 BM        Beach   
##  4          1224 BM        Beach   
##  5          1224 JM        Jazz    
##  6          1224 LB        Biology 
##  7          1223 BM        Beach   
##  8          1223 JM        Jazz    
##  9          1223 LB        Biology 
## 10          1222 JM        Jazz    
## # … with 338 more rows
…
